562219 422647 470
110369 652357 509
523494 314255 470
365794 194297 443
24801 67431 340
157016 382524 443
929763 124864 525
538073 576706 452
200160 749807 509
734086 427001 509
347178 272718 441
655418 402996 509
726378 938318 525
215299 887681 525
210439 263800 443
592535 114086 470
86883 982633 525
879195 42517 525
417213 597849 470
825349 363464 509
399257 586898 470
852795 673515 525
543846 562727 452
118524 110019 349
915068 797472 525
78594 808537 509
650189 383991 509
46267 616042 470
334004 608898 470
237342 722742 509
671911 398290 509
380427 955859 525
915170 275321 525
68501 290422 443
993953 345699 525
803014 397704 509
842925 476291 525
191397 398246 443
826536 411368 509
645970 625969 509
921815 288682 525
620242 644756 509
41212 681971 509
764870 488962 509
232548 415231 449
824061 402727 509
783268 336790 509
56014 903358 525
714712 658195 504
284029 453113 449
892472 735370 525
406243 790181 509
551420 741991 509
668833 609644 509
9015 96187 351
548496 788101 509
523646 790407 509
440900 254995 449
329577 902836 525
352159 48708 443
257048 76726 443
642771 982504 525
387810 542267 470
588684 504735 470
410689 480215 444
277364 440679 449
624104 894681 525
643296 853123 525
393765 64690 443
492085 370723 449
204341 655542 509
903617 991205 507
58304 415337 449
644505 801053 504
572133 55190 470
506010 402782 449
440147 13956 449
225163 665993 509
199011 992567 525
5993 327885 443
624060 897440 525
229573 253440 443
347088 473246 449
884238 978761 507
399990 423637 449
140837 347875 443
222453 572057 470
71047 179669 383
678475 145356 509
943652 290036 525
390532 119684 443
345301 327375 366
328663 37336 443
158204 789504 509
563839 87745 470
772719 840215 525
784608 174158 509
697910 624941 509
299416 892768 525
623098 680529 509
546602 681395 509
734845 75044 509
474274 184762 449
511060 379425 449
295451 922784 525
790863 943446 525
302090 43879 443
935351 230641 525
107853 785039 509
574150 830308 509
928941 517160 525
672378 569035 509
767757 11675 509
244405 303229 407
933790 239411 525
791780 156825 509
125209 280306 443
404217 666662 509
496709 535285 470
424806 319038 449
633350 22830 509
574647 178503 470
229146 721535 509
322347 893860 525
42323 588480 470
400362 8674 443
483382 894995 525
297875 708554 509
497894 85202 449
386023 277202 441
211491 108091 383
5404 244927 443
231613 995523 525
148482 829504 509
89199 538311 470
290343 794546 509
907309 452569 525
883169 782937 525
433384 48556 449
926311 656125 525
453326 935062 525
333714 193505 443
885739 331902 525
598308 772932 509
339646 601202 470
454831 97494 449
692657 360635 509
833071 6417 509
236281 87608 443
640038 867025 525
248419 900201 525
353602 212942 443
434550 494661 444
151303 549804 470
533164 101680 470
71870 915592 525
436649 566231 470
932348 608830 525
915196 310051 525
70832 174609 383
69819 928967 525
73517 353241 443
752880 396562 509
716858 559953 509
722557 8326 509
154851 506465 449
177229 465614 449
460463 143862 449
867418 516629 525
292990 319687 384
598347 10074 470
696613 374055 509
807153 397432 509
932944 751094 525
194909 769236 509
185546 986925 525
752095 298935 509
896859 741372 525
956714 616538 525
228924 485727 449
608452 397907 470
112961 771593 509
792714 987710 525
317684 989131 525
876446 352160 525
418688 233213 449
227004 492965 449
232997 194729 443
510617 108375 449
820163 890872 525
479023 289590 449
995141 268318 525
353621 763724 509
88951 990597 525
270428 829381 509
456943 954959 525
907656 831096 525
358047 236214 441
114700 451591 449
751141 48854 509
327235 583109 470
582748 883797 525
685980 836525 504
758693 846367 525
570039 555710 421
133656 635147 509
351584 381081 423
581550 331920 470
75759 216151 383
384038 601188 470
597472 816742 509
595987 101463 470
420116 352130 449
971672 528279 525
350049 955382 525
275128 779383 509
457362 653565 509
95351 322540 443
134570 312473 443
58774 71158 335
380394 962522 525
513355 127018 470
515523 957607 525
466878 965794 525
658040 276971 509
872382 973183 507
621627 578256 447
139421 966359 525
668842 879359 525
328096 5866 443
654758 593499 509
334743 213074 443
106636 710705 509
487474 554932 470
934451 311862 525
560438 543536 452
177512 444528 449
18726 198094 383
527251 231649 470
641576 548720 509
910667 277464 525
684071 733931 504
977912 354178 525
918661 309146 525
493632 167161 449
840149 380705 525
7522 373205 443
507851 575110 470
833162 871094 525
308351 175042 443
