4314 6053 236
2119 4139 238
1607 8496 262
3160 4683 238
4693 5851 236
6688 5342 262
1980 7423 262
4236 3701 238
9580 2800 262
4624 7578 262
7185 1517 262
8597 5882 262
9664 9113 260
2304 4977 238
8116 2507 262
9265 9185 260
4931 3564 238
8818 2439 262
8653 8966 247
8745 2862 262
5345 8548 262
2419 1374 183
6204 8097 257
8386 4202 262
2664 1377 209
9412 4348 262
6844 6885 151
9827 9896 242
3696 3055 207
7297 7201 177
8162 3913 262
1911 5411 238
1398 7400 262
9844 3875 262
5744 1059 238
5747 1394 238
5375 8215 262
6106 4871 236
6210 9764 260
2520 4460 238
2682 9342 262
6906 1070 262
3088 2958 155
1657 4201 238
6235 1651 262
8979 7202 252
4770 9979 262
5701 6547 262
9497 5373 262
1307 3411 217
1782 9286 262
1804 7106 262
5664 7347 262
9365 5279 262
4614 8198 262
5894 9521 262
4539 4797 197
5819 8550 262
5774 5888 218
8513 5799 262
6442 3473 262
5937 9062 262
8274 3777 262
5275 3149 238
1688 7966 262
9223 6466 257
9897 3145 262
6001 5395 236
6377 6874 244
3087 3204 199
6588 5523 262
7186 8989 252
2669 8679 262
6077 1763 238
2794 5772 238
9738 8533 260
4352 7992 262
1065 5196 238
7657 7598 177
6100 8471 262
1543 8620 262
6969 4937 262
9725 7756 260
9940 6734 260
4023 6428 262
8199 4498 262
8538 2307 262
5559 7662 262
2014 2384 183
5741 8127 262
4321 4630 215
4697 9449 262
8659 4522 262
3906 6649 262
1979 5333 238
6450 2839 262
9821 8879 260
2976 7031 262
6394 9765 260
5957 4391 236
8627 5915 262
2003 2541 209
3573 8600 262
2837 2000 209
7203 7599 239
9162 5265 262
4442 9874 262
2806 2428 209
4316 6091 236
2582 9476 262
8218 4394 262
3466 1174 217
2533 1107 209
2538 2063 209
6918 6408 244
7153 5053 262
1940 1562 180
2636 1193 209
7537 2804 262
4358 6663 262
9560 4309 262
7591 6124 262
4549 5046 210
5718 7955 262
9398 5408 262
8308 2061 262
6792 2985 262
9736 2742 262
2621 6604 262
1068 9378 262
1464 7571 262
9849 7615 260
1288 2490 209
4647 9141 262
7414 9250 252
3735 4553 215
3848 6739 262
1399 1955 180
1438 4764 238
3633 4901 238
9371 3478 262
4114 3453 238
9633 5177 262
6406 7522 257
4328 5407 215
7319 7278 195
9958 6109 262
1823 3530 217
2377 5487 238
2229 3910 238
7338 9609 260
5495 6446 262
6071 2871 238
7964 6504 257
4772 6220 262
7864 9210 252
9217 1110 262
2639 7896 262
6498 2601 262
4064 1834 238
8267 1712 262
3888 4691 215
2399 5332 238
8678 9921 260
9873 1890 262
3385 2689 217
2130 8114 262
3619 3052 199
5151 2164 238
2253 2544 209
5534 3605 238
6259 1039 262
6896 6044 262
4204 5700 236
5127 7512 262
2651 4452 238
1610 9530 262
5546 9095 262
8155 5372 262
5699 5092 236
5145 4280 215
7030 9285 260
7802 7235 239
1331 4200 238
6999 8173 252
6881 6746 182
6164 5421 236
1779 1556 180
1935 3951 238
9415 6033 262
3326 5167 238
8206 8621 234
4107 7119 262
4279 4809 215
6273 2183 262
4777 5399 210
3176 5506 238
1090 4506 238
2964 9231 262
7880 3538 262
3837 2241 238
9930 1234 262
6557 6891 244
2409 6820 262
1050 9602 262
5198 8529 262
5091 6414 262
9320 4674 262
8981 1978 262
9297 7253 260
7623 9723 260
1521 4925 238
3896 8434 262
3110 9913 262
8054 4079 262
7351 6085 262
6246 7404 257
8176 1026 262
4062 3100 238
4058 7065 262
7912 5625 262
4433 9516 262
4209 7275 262
5594 1228 238
2532 6830 262
5480 6260 262
1744 3156 217
9044 2813 262
2030 1157 182
9040 4438 262
2155 3224 217
2447 7114 262
1442 2326 183
8488 3618 262
6933 2152 262
3106 8190 262
8992 5366 262
9168 3163 262
8458 1029 262
6740 8370 257
8351 5633 262
4106 3459 238
6464 4213 262
7158 9060 252
2478 7116 262
5062 6913 262
7079 6725 257
1209 7894 262
9663 7209 260
4466 5301 210
5804 1725 238
6758 5869 262
1368 5282 238
6996 5262 262
3430 2590 217
6067 3776 236
1109 4781 238
3876 2913 238
1414 5609 238
4361 1855 238
1750 2783 209
8244 2502 262
4881 7692 262
8436 4755 262
7812 8919 252
2459 4876 238
6024 7572 262
9436 4351 262
1123 6140 238
2831 5080 238
8563 5608 262
5713 7261 262
4060 7638 262
5503 9033 262
7402 4605 262
2081 7088 262
9517 6559 260
7451 1295 262
6637 4573 262
7210 6837 257
6668 6247 244
8695 4603 262
3380 1928 217
8921 5808 262
6639 9655 260
4150 3267 238
9312 7416 260
7458 7973 252
4030 2302 238
7431 7089 239
8846 7324 252
3324 1128 217
1138 3971 238
6451 5763 262
9493 6754 260
5507 9345 262
5179 1273 238
1497 4988 238
9782 8828 260
9555 1044 262
